…
By default, `epmc_search` returns 100 records. To adjust the limit, simply use
the `limit` parameter.

### Examples

For instance, search for abstracts and full texts that mention 
[`Gabi-Kat`](https://www.gabi-kat.de/),  a Flanking Sequence Tag 
(FST)-based database for T-DNA insertion mutants:


```r
epmc_search(query = 'Gabi-Kat')
#> # A tibble: 100 × 27
#>          id source     pmid                                doi
#>       <chr>  <chr>    <chr>                              <chr>
#> 1  28013277    MED 28013277                 10.1093/pcp/pcw205
#> 2  22080561    MED 22080561                10.1093/nar/gkr1047
#> 3  17062622    MED 17062622                 10.1093/nar/gkl753
#> 4  14756321    MED 14756321 10.1023/b:plan.0000009297.37235.4a
#> 5  12874060    MED 12874060      10.1093/bioinformatics/btg170
#> 6  25324895    MED 25324895            10.1186/1746-4811-10-28
#> 7  27507985    MED 27507985            10.3389/fpls.2016.01115
#> 8  27117628    MED 27117628                  10.1038/srep24971
#> 9  26343971    MED 26343971         10.1016/j.molp.2015.08.011
#> 10 28167950    MED 28167950            10.3389/fpls.2017.00007
#> # ... with 90 more rows, and 23 more variables: title <chr>,
#> #   authorString <chr>, journalTitle <chr>, issue <chr>,
#> #   journalVolume <chr>, pubYear <chr>, journalIssn <chr>, pageInfo <chr>,
#> #   pubType <chr>, isOpenAccess <chr>, inEPMC <chr>, inPMC <chr>,
#> #   hasPDF <chr>, hasBook <chr>, citedByCount <int>, hasReferences <chr>,
#> #   hasTextMinedTerms <chr>, hasDbCrossReferences <chr>,
#> #   hasLabsLinks <chr>, hasTMAccessionNumbers <chr>,
#> #   firstPublicationDate <chr>, pmcid <chr>, hasSuppl <chr>
```

Get PLOS Genetics (ISSN:1553-7404) articles that cross-reference EMBL:


```r
epmc_search(query = 'ISSN:1553-7404 HAS_EMBL:y')
#> # A tibble: 100 × 27
#>          id source     pmid      pmcid                          doi
#>       <chr>  <chr>    <chr>      <chr>                        <chr>
#> 1  28222092    MED 28222092 PMC5340410 10.1371/journal.pgen.1006596
#> 2  27780204    MED 27780204 PMC5079590 10.1371/journal.pgen.1006397
#> 3  27764113    MED 27764113 PMC5072692 10.1371/journal.pgen.1006387
#> 4  27541862    MED 27541862 PMC4991801 10.1371/journal.pgen.1006270
#> 5  27385107    MED 27385107 PMC4934787 10.1371/journal.pgen.1006155
#> 6  27327578    MED 27327578 PMC4915694 10.1371/journal.pgen.1006110
#> 7  27203426    MED 27203426 PMC4874600 10.1371/journal.pgen.1006063
#> 8  27149082    MED 27149082 PMC4858218 10.1371/journal.pgen.1006030
#> 9  27120580    MED 27120580 PMC4847869 10.1371/journal.pgen.1005987
#> 10 27082250    MED 27082250 PMC4833346 10.1371/journal.pgen.1005954
#> # ... with 90 more rows, and 22 more variables: title <chr>,
#> #   authorString <chr>, journalTitle <chr>, issue <chr>,
#> #   journalVolume <chr>, pubYear <chr>, journalIssn <chr>, pageInfo <chr>,
#> #   pubType <chr>, isOpenAccess <chr>, inEPMC <chr>, inPMC <chr>,
#> #   hasPDF <chr>, hasBook <chr>, hasSuppl <chr>, citedByCount <int>,
#> #   hasReferences <chr>, hasTextMinedTerms <chr>,
#> #   hasDbCrossReferences <chr>, hasLabsLinks <chr>,
#> #   hasTMAccessionNumbers <chr>, firstPublicationDate <chr>
```

Use [ORCID](http://orcid.org/) to search for personal publications:


```r
epmc_search(query = 'AUTHORID:"0000-0002-7635-3473"', limit = 1000)
#> # A tibble: 132 × 27
#>          id source     pmid                          doi
#>       <chr>  <chr>    <chr>                        <chr>
#> 1  28013277    MED 28013277           10.1093/pcp/pcw205
#> 2  27230558    MED 27230558    10.1186/s12870-016-0805-5
#> 3  27214749    MED 27214749            10.1111/nph.14008
#> 4  26980001    MED 26980001    10.1186/s12864-016-2566-9
#> 5  27557761    MED 27557761  10.1007/978-1-4939-6396-6_5
#> 6  26676716    MED 26676716            10.1111/tpj.13103
#> 7  26343971    MED 26343971   10.1016/j.molp.2015.08.011
#> 8  26328666    MED 26328666    10.1186/s13059-015-0729-7
#> 9  27711162    MED 27711162 10.1371/journal.pone.0164321
#> 10 27660776    MED 27660776     10.1128/genomea.00975-16
#> # ... with 122 more rows, and 23 more variables: title <chr>,
#> #   authorString <chr>, journalTitle <chr>, issue <chr>,
#> #   journalVolume <chr>, pubYear <chr>, journalIssn <chr>, pageInfo <chr>,
#> #   pubType <chr>, isOpenAccess <chr>, inEPMC <chr>, inPMC <chr>,
#> #   hasPDF <chr>, hasBook <chr>, citedByCount <int>, hasReferences <chr>,
#> #   hasTextMinedTerms <chr>, hasDbCrossReferences <chr>,
#> #   hasLabsLinks <chr>, hasTMAccessionNumbers <chr>,
#> #   firstPublicationDate <chr>, pmcid <chr>, hasSuppl <chr>
```

### Include MeSH and UniProt synonyms

You may also want to include synonyms when searching Europe PMC. If
`synonym = TRUE` MeSH and UniProt synonyms are searched as well.


```r
# with snyonyms
epmc_search('aspirin', synonym = TRUE)
#> # A tibble: 100 × 27
#>          id source     pmid                            doi
#>       <chr>  <chr>    <chr>                          <chr>
#> 1  28147891    MED 28147891  10.1080/13880209.2017.1283706
#> 2  28142297    MED 28142297  10.1080/15419061.2017.1282469
#> 3  28472145    MED 28472145   10.1371/journal.pone.0177201
#> 4  28507039    MED 28507039 10.1158/1940-6207.capr-17-0033
#> 5  28464540    MED 28464540               10.1002/jhbp.461
#> 6  28481152    MED 28481152  10.1080/01616412.2017.1326657
#> 7  28504994    MED 28504994   10.1213/ane.0000000000002053
#> 8  28463532    MED 28463532  10.1080/17512433.2017.1324782
#> 9  28503981    MED 28503981  10.1080/09537104.2017.1306039
#> 10 28460643    MED 28460643      10.1186/s13058-017-0840-7
#> # ... with 90 more rows, and 23 more variables: title <chr>,
#> #   authorString <chr>, journalTitle <chr>, issue <chr>,
#> #   journalVolume <chr>, pubYear <chr>, journalIssn <chr>, pageInfo <chr>,
#> #   pubType <chr>, isOpenAccess <chr>, inEPMC <chr>, inPMC <chr>,
#> #   hasPDF <chr>, hasBook <chr>, citedByCount <int>, hasReferences <chr>,
#> #   hasTextMinedTerms <chr>, hasDbCrossReferences <chr>,
#> #   hasLabsLinks <chr>, hasTMAccessionNumbers <chr>,
#> #   firstPublicationDate <chr>, pmcid <chr>, hasSuppl <chr>

# without synonyms
epmc_search('aspirin', synonym = FALSE)
#> # A tibble: 100 × 27
#>          id source     pmid                            doi
#>       <chr>  <chr>    <chr>                          <chr>
#> 1  28147891    MED 28147891  10.1080/13880209.2017.1283706
#> 2  28464540    MED 28464540               10.1002/jhbp.461
#> 3  28472145    MED 28472145   10.1371/journal.pone.0177201
#> 4  28507039    MED 28507039 10.1158/1940-6207.capr-17-0033
#> 5  28463532    MED 28463532  10.1080/17512433.2017.1324782
#> 6  28481152    MED 28481152  10.1080/01616412.2017.1326657
#> 7  28432049    MED 28432049             10.2146/ajhp160219
#> 8  28453510    MED 28453510   10.1371/journal.pone.0175966
#> 9  28446712    MED 28446712          10.18632/aging.101224
#> 10 28444860    MED 28444860        10.1111/1755-5922.12268
#> # ... with 90 more rows, and 23 more variables: title <chr>,
#> #   authorString <chr>, journalTitle <chr>, issue <chr>,
#> #   journalVolume <chr>, pubYear <chr>, journalIssn <chr>, pageInfo <chr>,
#> #   pubType <chr>, isOpenAccess <chr>, inEPMC <chr>, inPMC <chr>,
#> #   hasPDF <chr>, hasBook <chr>, citedByCount <int>, hasReferences <chr>,
#> #   hasTextMinedTerms <chr>, hasDbCrossReferences <chr>,
#> #   hasLabsLinks <chr>, hasTMAccessionNumbers <chr>,
#> #   firstPublicationDate <chr>, pmcid <chr>, hasSuppl <chr>
```

### Output types

`epmc_search()` supports the following output types :

#### Parsed key metadata (default)

Key metadata parsed as non-nested tibble:


```r
epmc_search('Gabi-Kat', output = 'parsed')
#> # A tibble: 100 × 27
#>          id source     pmid                                doi
#>       <chr>  <chr>    <chr>                              <chr>
#> 1  28013277    MED 28013277                 10.1093/pcp/pcw205
#> 2  22080561    MED 22080561                10.1093/nar/gkr1047
#> 3  17062622    MED 17062622                 10.1093/nar/gkl753
#> 4  14756321    MED 14756321 10.1023/b:plan.0000009297.37235.4a
#> 5  12874060    MED 12874060      10.1093/bioinformatics/btg170
#> 6  25324895    MED 25324895            10.1186/1746-4811-10-28
#> 7  27507985    MED 27507985            10.3389/fpls.2016.01115
#> 8  27117628    MED 27117628                  10.1038/srep24971
#> 9  26343971    MED 26343971         10.1016/j.molp.2015.08.011
#> 10 28167950    MED 28167950            10.3389/fpls.2017.00007
#> # ... with 90 more rows, and 23 more variables: title <chr>,
#> #   authorString <chr>, journalTitle <chr>, issue <chr>,
#> #   journalVolume <chr>, pubYear <chr>, journalIssn <chr>, pageInfo <chr>,
#> #   pubType <chr>, isOpenAccess <chr>, inEPMC <chr>, inPMC <chr>,
#> #   hasPDF <chr>, hasBook <chr>, citedByCount <int>, hasReferences <chr>,
#> #   hasTextMinedTerms <chr>, hasDbCrossReferences <chr>,
#> #   hasLabsLinks <chr>, hasTMAccessionNumbers <chr>,
#> #   firstPublicationDate <chr>, pmcid <chr>, hasSuppl <chr>
```
In addition to fetch bibliographic metadata, the parsed output also helps you
to get a general overview about additional information types that are offered by 
Europe PMC and which can be retrieved through other `europepmc`-functions. 
Columns inform whether open access full texts (`isOpenAccess`), cross-links to
other EBI databases (`hasDbCrossReferences`), text-mined terms (`hasTextMinedTerms`)
or references (`hasReferences`) are available.

#### IDs

List of literature database identifier including PMID:


```r
epmc_search('Gabi-Kat', output = 'id_list')
#> # A tibble: 100 × 4
#>          id source     pmid      pmcid
#>       <chr>  <chr>    <chr>      <chr>
#> 1  28013277    MED 28013277       <NA>
#> 2  22080561    MED 22080561 PMC3245140
#> 3  17062622    MED 17062622 PMC1781121
#> 4  14756321    MED 14756321       <NA>
#> 5  12874060    MED 12874060       <NA>
#> 6  25324895    MED 25324895 PMC4169229
#> 7  27507985    MED 27507985 PMC4960254
#> 8  27117628    MED 27117628 PMC4846993
#> 9  26343971    MED 26343971       <NA>
#> 10 28167950    MED 28167950 PMC5253381
#> # ... with 90 more rows
```
…
## Get citation counts and citing publications

Citing publications from the Europe PMC index can be retrieved like this:


```r
my_cites <- epmc_citations('9338777')
my_cites
#> # A tibble: 100 × 12
#>          id source
#>       <chr>  <chr>
#> 1  10221475    MED
#> 2  10342317    MED
#> 3  10440384    MED
#> 4   9696842    MED
#> 5   9703304    MED
#> 6   9728974    MED
#> 7   9728985    MED
#> 8   9728986    MED
#> 9   9728987    MED
#> 10 11134319    MED
#> # ... with 90 more rows, and 10 more variables: citationType <chr>,
#> #   title <chr>, authorString <chr>, journalAbbreviation <chr>,
#> #   pubYear <int>, volume <chr>, issue <chr>, pageInfo <chr>,
#> #   citedByCount <int>, text <chr>
…
