…
```r
library(dplyr)
my_df <- purrr::map_df(dvcs_query, function(x) {
  # get number of publications with indexed reference lists
  refs_hits <-
    europepmc::epmc_hits_trend("has_reflist:y", period = 2009:2022, synonym = FALSE)$query_hits
  # get hit count querying for code repositories
  europepmc::epmc_hits_trend(x, period = 2009:2022, synonym = FALSE) %>%
    dplyr::mutate(query_id = x) %>%
    dplyr::mutate(refs_hits = refs_hits) %>%
    dplyr::select(year, all_hits, refs_hits, query_hits, query_id)
})
my_df
#> # A tibble: 70 × 5
#>     year all_hits refs_hits query_hits query_id                 
#>    <int>    <dbl>     <dbl>      <dbl> <chr>                    
#>  1  2009   793211    555994         13 "REF:\"code.google.com\""
#>  2  2010   851063    541440         40 "REF:\"code.google.com\""
#>  3  2011   904794    604311         65 "REF:\"code.google.com\""
#>  4  2012   946175    636818         92 "REF:\"code.google.com\""
#>  5  2013  1004386    763699        135 "REF:\"code.google.com\""
#>  6  2014  1055159    797691        140 "REF:\"code.google.com\""
#>  7  2015  1096370    780509        117 "REF:\"code.google.com\""
#>  8  2016  1117117    783865         65 "REF:\"code.google.com\""
#>  9  2017  1138383    819481         52 "REF:\"code.google.com\""
#> 10  2018  1180056    757547         29 "REF:\"code.google.com\""
#> # ℹ 60 more rows
…
