R Interface to the Europe PubMed Central RESTful Web Service • europepmc
…
The latest development version can be installed using devtools package:

require(devtools)
install_github("ropensci/europepmc")

Loading into R

library(europepmc)

Search Europe PMC

The search covers both metadata (e.g. abstracts or title) and full texts. To build your query, please refer to the comprehensive guidance on how to search Europe PMC: http://europepmc.org/help. Simply provide your query in the Europe PMC search syntax to epmc_search().

europepmc::epmc_search("Lagotto Romagnolo")
#> # A tibble: 39 x 27
#>          id source     pmid                                doi
#>       <chr>  <chr>    <chr>                              <chr>
#>  1 28583040    MED 28583040           10.1177/0300985817712793
#>  2 25945683    MED 25945683                 10.1111/jvim.12611
#>  3 24354474    MED 24354474                  10.1111/vru.12129
#>  4 17552452    MED 17552452 10.1111/j.1939-1676.2007.tb02991.x
#>  5 17490444    MED 17490444   10.1111/j.1748-5827.2006.00298.x
#>  6 29056526    MED 29056526       10.1016/j.beproc.2017.10.009
#>  7 27525650    MED 27525650       10.1371/journal.pone.0161005
#>  8 29166669    MED 29166669       10.1371/journal.pone.0188543
#>  9 25875846    MED 25875846       10.1371/journal.pgen.1005169
#> 10 26316206    MED 26316206          10.1186/s12917-015-0463-0
#> # ... with 29 more rows, and 23 more variables: title <chr>,
#> #   authorString <chr>, journalTitle <chr>, issue <chr>,
#> #   journalVolume <chr>, pubYear <chr>, journalIssn <chr>, pageInfo <chr>,
#> #   pubType <chr>, isOpenAccess <chr>, inEPMC <chr>, inPMC <chr>,
#> #   hasPDF <chr>, hasBook <chr>, citedByCount <int>, hasReferences <chr>,
#> #   hasTextMinedTerms <chr>, hasDbCrossReferences <chr>,
#> #   hasLabsLinks <chr>, hasTMAccessionNumbers <chr>,
#> #   firstPublicationDate <chr>, pmcid <chr>, hasSuppl <chr>

By default, epmc_search() returns 100 records. To adjust the limit, simply use the limit parameter.

See vignette Introducing europepmc, an R interface to Europe PMC RESTful API for a long-form documentation about how to search Europe PMC with this client.

Creating proper review graphs with epmc_hits_trend()

There is also a nice function allowing you to easily create review graphs like described in Maëlle Salmon’s blog post:

tt_oa <- europepmc::epmc_hits_trend("Malaria", period = 1995:2016, synonym = FALSE)
tt_oa
#> # A tibble: 22 x 3
#>     year all_hits query_hits
#>    <int>    <dbl>      <dbl>
#>  1  1995   448144       1485
#>  2  1996   457900       1560
#>  3  1997   455662       1853
#>  4  1998   473286       1749
#>  5  1999   492990       1935
#>  6  2000   531375       2127
#>  7  2001   544462       2203
#>  8  2002   560839       2352
#>  9  2003   587527       2553
#> 10  2004   627139       2748
#> # ... with 12 more rows
…
