Making proper trend graphs • europepmc
…
By default, synonym search is disabled and only Medline/PubMed index is searched.

Use Cases

Use Case: Growth of Open Access Literature

There is a growing interest in knowing the proportion of open access to scholarly literature. Europe PMC allows searching for open access content with the OPEN_ACCESS:Y parameter. At the moment, Europe PMC contains 1,605,260 open access full-texts. Let’s see how they are relatively distributed over the period 1995 - 2016.

tt_oa <- europepmc::epmc_hits_trend("OPEN_ACCESS:Y", period = 1995:2016, synonym = FALSE)
tt_oa
#> # A tibble: 22 x 3
#>     year all_hits query_hits
#>    <int>    <dbl>      <dbl>
#>  1  1995   474303       3098
#>  2  1996   486976       3393
#>  3  1997   485270       3684
#>  4  1998   505556       3976
#>  5  1999   526210       4321
#>  6  2000   567531       4695
#>  7  2001   581841       5899
#>  8  2002   603487       6591
#>  9  2003   626205       7709
#> 10  2004   679743      10033
#> # ... with 12 more rows
…
and get publications for which Europe PMC gives access to reference lists for normalizing the review graph.

my_df <- purrr::map_df(dvcs_query, function(x) {
  # get number of publications with indexed reference lists
  refs_hits <- 
    europepmc::epmc_hits_trend("has_reflist:y", period = 2009:2016, synonym = FALSE)$query_hits
  # get hit count querying for code repositories 
  europepmc::epmc_hits_trend(x, period = 2009:2016, synonym = FALSE) %>% 
    dplyr::mutate(query_id = x) %>%
    dplyr::mutate(refs_hits = refs_hits) %>%
    dplyr::select(year, all_hits, refs_hits, query_hits, query_id)
}) 
my_df
#> # A tibble: 40 x 5
#>     year all_hits refs_hits query_hits                  query_id
#>    <int>    <dbl>     <dbl>      <dbl>                     <chr>
#>  1  2009   824691    487744         13 "REF:\"code.google.com\""
#>  2  2010   880875    500230         41 "REF:\"code.google.com\""
#>  3  2011   932247    562667         67 "REF:\"code.google.com\""
#>  4  2012   975738    592186         89 "REF:\"code.google.com\""
#>  5  2013  1034123    723937        135 "REF:\"code.google.com\""
#>  6  2014  1081397    761217        145 "REF:\"code.google.com\""
#>  7  2015  1140352    713742        117 "REF:\"code.google.com\""
#>  8  2016  1097992    538097         59 "REF:\"code.google.com\""
#>  9  2009   824691    487744          4      "REF:\"github.com\""
#> 10  2010   880875    500230         10      "REF:\"github.com\""
#> # ... with 30 more rows
…
